<svg id="mermaid-1594846311222" width="100%" xmlns="http://www.w3.org/2000/svg" height="100%" viewBox="0 0 1568 316"><style>



#mermaid-1594846311222 .label {
  font-family: 'trebuchet ms', verdana, arial;
  font-family: var(--mermaid-font-family);
  color: #333; }

#mermaid-1594846311222 .label text {
  fill: #333; }

#mermaid-1594846311222 .node rect,
#mermaid-1594846311222 .node circle,
#mermaid-1594846311222 .node ellipse,
#mermaid-1594846311222 .node polygon,
#mermaid-1594846311222 .node path {
  fill: #ECECFF;
  stroke: #9370DB;
  stroke-width: 1px; }

#mermaid-1594846311222 .node .label {
  text-align: center; }

#mermaid-1594846311222 .node.clickable {
  cursor: pointer; }

#mermaid-1594846311222 .arrowheadPath {
  fill: #333333; }

#mermaid-1594846311222 .edgePath .path {
  stroke: #333333;
  stroke-width: 1.5px; }

#mermaid-1594846311222 .flowchart-link {
  stroke: #333333;
  fill: none; }

#mermaid-1594846311222 .edgeLabel {
  background-color: #e8e8e8;
  text-align: center; }
#mermaid-1594846311222   .edgeLabel rect {
    opacity: 0.5; }

#mermaid-1594846311222 .cluster rect {
  fill: #ffffde;
  stroke: #aaaa33;
  stroke-width: 1px; }

#mermaid-1594846311222 .cluster text {
  fill: #333; }

#mermaid-1594846311222 div.mermaidTooltip {
  position: absolute;
  text-align: center;
  max-width: 200px;
  padding: 2px;
  font-family: 'trebuchet ms', verdana, arial;
  font-family: var(--mermaid-font-family);
  font-size: 12px;
  background: #ffffde;
  border: 1px solid #aaaa33;
  border-radius: 2px;
  pointer-events: none;
  z-index: 100; }

#mermaid-1594846311222 .actor {
  stroke: #CCCCFF;
  fill: #ECECFF; }

#mermaid-1594846311222 text.actor &gt; tspan {
  fill: black;
  stroke: none; }

#mermaid-1594846311222 .actor-line {
  stroke: grey; }

#mermaid-1594846311222 .messageLine0 {
  stroke-width: 1.5;
  stroke-dasharray: none;
  stroke: #333; }

#mermaid-1594846311222 .messageLine1 {
  stroke-width: 1.5;
  stroke-dasharray: 2, 2;
  stroke: #333; }

#mermaid-1594846311222 #arrowhead path {
  fill: #333;
  stroke: #333; }

#mermaid-1594846311222 .sequenceNumber {
  fill: white; }

#mermaid-1594846311222 #sequencenumber {
  fill: #333; }

#mermaid-1594846311222 #crosshead path {
  fill: #333;
  stroke: #333; }

#mermaid-1594846311222 .messageText {
  fill: #333;
  stroke: #333; }

#mermaid-1594846311222 .labelBox {
  stroke: #CCCCFF;
  fill: #ECECFF; }

#mermaid-1594846311222 .labelText,#mermaid-1594846311222  .labelText &gt; tspan {
  fill: black;
  stroke: none; }

#mermaid-1594846311222 .loopText,#mermaid-1594846311222  .loopText &gt; tspan {
  fill: black;
  stroke: none; }

#mermaid-1594846311222 .loopLine {
  stroke-width: 2px;
  stroke-dasharray: 2, 2;
  stroke: #CCCCFF;
  fill: #CCCCFF; }

#mermaid-1594846311222 .note {
  stroke: #aaaa33;
  fill: #fff5ad; }

#mermaid-1594846311222 .noteText,#mermaid-1594846311222  .noteText &gt; tspan {
  fill: black;
  stroke: none; }

#mermaid-1594846311222 .activation0 {
  fill: #f4f4f4;
  stroke: #666; }

#mermaid-1594846311222 .activation1 {
  fill: #f4f4f4;
  stroke: #666; }

#mermaid-1594846311222 .activation2 {
  fill: #f4f4f4;
  stroke: #666; }


#mermaid-1594846311222 .mermaid-main-font {
  font-family: "trebuchet ms", verdana, arial;
  font-family: var(--mermaid-font-family); }

#mermaid-1594846311222 .section {
  stroke: none;
  opacity: 0.2; }

#mermaid-1594846311222 .section0 {
  fill: rgba(102, 102, 255, 0.49); }

#mermaid-1594846311222 .section2 {
  fill: #fff400; }

#mermaid-1594846311222 .section1,
#mermaid-1594846311222 .section3 {
  fill: white;
  opacity: 0.2; }

#mermaid-1594846311222 .sectionTitle0 {
  fill: #333; }

#mermaid-1594846311222 .sectionTitle1 {
  fill: #333; }

#mermaid-1594846311222 .sectionTitle2 {
  fill: #333; }

#mermaid-1594846311222 .sectionTitle3 {
  fill: #333; }

#mermaid-1594846311222 .sectionTitle {
  text-anchor: start;
  font-size: 11px;
  text-height: 14px;
  font-family: 'trebuchet ms', verdana, arial;
  font-family: var(--mermaid-font-family); }


#mermaid-1594846311222 .grid .tick {
  stroke: lightgrey;
  opacity: 0.8;
  shape-rendering: crispEdges; }
#mermaid-1594846311222   .grid .tick text {
    font-family: 'trebuchet ms', verdana, arial;
    font-family: var(--mermaid-font-family); }

#mermaid-1594846311222 .grid path {
  stroke-width: 0; }


#mermaid-1594846311222 .today {
  fill: none;
  stroke: red;
  stroke-width: 2px; }



#mermaid-1594846311222 .task {
  stroke-width: 2; }

#mermaid-1594846311222 .taskText {
  text-anchor: middle;
  font-family: 'trebuchet ms', verdana, arial;
  font-family: var(--mermaid-font-family); }

#mermaid-1594846311222 .taskText:not([font-size]) {
  font-size: 11px; }

#mermaid-1594846311222 .taskTextOutsideRight {
  fill: black;
  text-anchor: start;
  font-size: 11px;
  font-family: 'trebuchet ms', verdana, arial;
  font-family: var(--mermaid-font-family); }

#mermaid-1594846311222 .taskTextOutsideLeft {
  fill: black;
  text-anchor: end;
  font-size: 11px; }


#mermaid-1594846311222 .task.clickable {
  cursor: pointer; }

#mermaid-1594846311222 .taskText.clickable {
  cursor: pointer;
  fill: #003163 !important;
  font-weight: bold; }

#mermaid-1594846311222 .taskTextOutsideLeft.clickable {
  cursor: pointer;
  fill: #003163 !important;
  font-weight: bold; }

#mermaid-1594846311222 .taskTextOutsideRight.clickable {
  cursor: pointer;
  fill: #003163 !important;
  font-weight: bold; }


#mermaid-1594846311222 .taskText0,
#mermaid-1594846311222 .taskText1,
#mermaid-1594846311222 .taskText2,
#mermaid-1594846311222 .taskText3 {
  fill: white; }

#mermaid-1594846311222 .task0,
#mermaid-1594846311222 .task1,
#mermaid-1594846311222 .task2,
#mermaid-1594846311222 .task3 {
  fill: #8a90dd;
  stroke: #534fbc; }

#mermaid-1594846311222 .taskTextOutside0,
#mermaid-1594846311222 .taskTextOutside2 {
  fill: black; }

#mermaid-1594846311222 .taskTextOutside1,
#mermaid-1594846311222 .taskTextOutside3 {
  fill: black; }


#mermaid-1594846311222 .active0,
#mermaid-1594846311222 .active1,
#mermaid-1594846311222 .active2,
#mermaid-1594846311222 .active3 {
  fill: #bfc7ff;
  stroke: #534fbc; }

#mermaid-1594846311222 .activeText0,
#mermaid-1594846311222 .activeText1,
#mermaid-1594846311222 .activeText2,
#mermaid-1594846311222 .activeText3 {
  fill: black !important; }


#mermaid-1594846311222 .done0,
#mermaid-1594846311222 .done1,
#mermaid-1594846311222 .done2,
#mermaid-1594846311222 .done3 {
  stroke: grey;
  fill: lightgrey;
  stroke-width: 2; }

#mermaid-1594846311222 .doneText0,
#mermaid-1594846311222 .doneText1,
#mermaid-1594846311222 .doneText2,
#mermaid-1594846311222 .doneText3 {
  fill: black !important; }


#mermaid-1594846311222 .crit0,
#mermaid-1594846311222 .crit1,
#mermaid-1594846311222 .crit2,
#mermaid-1594846311222 .crit3 {
  stroke: #ff8888;
  fill: red;
  stroke-width: 2; }

#mermaid-1594846311222 .activeCrit0,
#mermaid-1594846311222 .activeCrit1,
#mermaid-1594846311222 .activeCrit2,
#mermaid-1594846311222 .activeCrit3 {
  stroke: #ff8888;
  fill: #bfc7ff;
  stroke-width: 2; }

#mermaid-1594846311222 .doneCrit0,
#mermaid-1594846311222 .doneCrit1,
#mermaid-1594846311222 .doneCrit2,
#mermaid-1594846311222 .doneCrit3 {
  stroke: #ff8888;
  fill: lightgrey;
  stroke-width: 2;
  cursor: pointer;
  shape-rendering: crispEdges; }

#mermaid-1594846311222 .milestone {
  transform: rotate(45deg) scale(0.8, 0.8); }

#mermaid-1594846311222 .milestoneText {
  font-style: italic; }

#mermaid-1594846311222 .doneCritText0,
#mermaid-1594846311222 .doneCritText1,
#mermaid-1594846311222 .doneCritText2,
#mermaid-1594846311222 .doneCritText3 {
  fill: black !important; }

#mermaid-1594846311222 .activeCritText0,
#mermaid-1594846311222 .activeCritText1,
#mermaid-1594846311222 .activeCritText2,
#mermaid-1594846311222 .activeCritText3 {
  fill: black !important; }

#mermaid-1594846311222 .titleText {
  text-anchor: middle;
  font-size: 18px;
  fill: black;
  font-family: 'trebuchet ms', verdana, arial;
  font-family: var(--mermaid-font-family); }

#mermaid-1594846311222 g.classGroup text {
  fill: #9370DB;
  stroke: none;
  font-family: 'trebuchet ms', verdana, arial;
  font-family: var(--mermaid-font-family);
  font-size: 10px; }
#mermaid-1594846311222   g.classGroup text .title {
    font-weight: bolder; }

#mermaid-1594846311222 g.clickable {
  cursor: pointer; }

#mermaid-1594846311222 g.classGroup rect {
  fill: #ECECFF;
  stroke: #9370DB; }

#mermaid-1594846311222 g.classGroup line {
  stroke: #9370DB;
  stroke-width: 1; }

#mermaid-1594846311222 .classLabel .box {
  stroke: none;
  stroke-width: 0;
  fill: #ECECFF;
  opacity: 0.5; }

#mermaid-1594846311222 .classLabel .label {
  fill: #9370DB;
  font-size: 10px; }

#mermaid-1594846311222 .relation {
  stroke: #9370DB;
  stroke-width: 1;
  fill: none; }

#mermaid-1594846311222 .dashed-line {
  stroke-dasharray: 3; }

#mermaid-1594846311222 #compositionStart {
  fill: #9370DB;
  stroke: #9370DB;
  stroke-width: 1; }

#mermaid-1594846311222 #compositionEnd {
  fill: #9370DB;
  stroke: #9370DB;
  stroke-width: 1; }

#mermaid-1594846311222 #aggregationStart {
  fill: #ECECFF;
  stroke: #9370DB;
  stroke-width: 1; }

#mermaid-1594846311222 #aggregationEnd {
  fill: #ECECFF;
  stroke: #9370DB;
  stroke-width: 1; }

#mermaid-1594846311222 #dependencyStart {
  fill: #9370DB;
  stroke: #9370DB;
  stroke-width: 1; }

#mermaid-1594846311222 #dependencyEnd {
  fill: #9370DB;
  stroke: #9370DB;
  stroke-width: 1; }

#mermaid-1594846311222 #extensionStart {
  fill: #9370DB;
  stroke: #9370DB;
  stroke-width: 1; }

#mermaid-1594846311222 #extensionEnd {
  fill: #9370DB;
  stroke: #9370DB;
  stroke-width: 1; }

#mermaid-1594846311222 .commit-id,
#mermaid-1594846311222 .commit-msg,
#mermaid-1594846311222 .branch-label {
  fill: lightgrey;
  color: lightgrey;
  font-family: 'trebuchet ms', verdana, arial;
  font-family: var(--mermaid-font-family); }

#mermaid-1594846311222 .pieTitleText {
  text-anchor: middle;
  font-size: 25px;
  fill: black;
  font-family: 'trebuchet ms', verdana, arial;
  font-family: var(--mermaid-font-family); }

#mermaid-1594846311222 .slice {
  font-family: 'trebuchet ms', verdana, arial;
  font-family: var(--mermaid-font-family); }

#mermaid-1594846311222 g.stateGroup text {
  fill: #9370DB;
  stroke: none;
  font-size: 10px;
  font-family: 'trebuchet ms', verdana, arial;
  font-family: var(--mermaid-font-family); }

#mermaid-1594846311222 g.stateGroup text {
  fill: #9370DB;
  stroke: none;
  font-size: 10px; }

#mermaid-1594846311222 g.stateGroup .state-title {
  font-weight: bolder;
  fill: black; }

#mermaid-1594846311222 g.stateGroup rect {
  fill: #ECECFF;
  stroke: #9370DB; }

#mermaid-1594846311222 g.stateGroup line {
  stroke: #9370DB;
  stroke-width: 1; }

#mermaid-1594846311222 .transition {
  stroke: #9370DB;
  stroke-width: 1;
  fill: none; }

#mermaid-1594846311222 .stateGroup .composit {
  fill: white;
  border-bottom: 1px; }

#mermaid-1594846311222 .stateGroup .alt-composit {
  fill: #e0e0e0;
  border-bottom: 1px; }

#mermaid-1594846311222 .state-note {
  stroke: #aaaa33;
  fill: #fff5ad; }
#mermaid-1594846311222   .state-note text {
    fill: black;
    stroke: none;
    font-size: 10px; }

#mermaid-1594846311222 .stateLabel .box {
  stroke: none;
  stroke-width: 0;
  fill: #ECECFF;
  opacity: 0.5; }

#mermaid-1594846311222 .stateLabel text {
  fill: black;
  font-size: 10px;
  font-weight: bold;
  font-family: 'trebuchet ms', verdana, arial;
  font-family: var(--mermaid-font-family); }

#mermaid-1594846311222 .node circle.state-start {
  fill: black;
  stroke: black; }

#mermaid-1594846311222 .node circle.state-end {
  fill: black;
  stroke: white;
  stroke-width: 1.5; }

#mermaid-1594846311222 #statediagram-barbEnd {
  fill: #9370DB; }

#mermaid-1594846311222 .statediagram-cluster rect {
  fill: #ECECFF;
  stroke: #9370DB;
  stroke-width: 1px; }

#mermaid-1594846311222 .statediagram-cluster rect.outer {
  rx: 5px;
  ry: 5px; }

#mermaid-1594846311222 .statediagram-state .divider {
  stroke: #9370DB; }

#mermaid-1594846311222 .statediagram-state .title-state {
  rx: 5px;
  ry: 5px; }

#mermaid-1594846311222 .statediagram-cluster.statediagram-cluster .inner {
  fill: white; }

#mermaid-1594846311222 .statediagram-cluster.statediagram-cluster-alt .inner {
  fill: #e0e0e0; }

#mermaid-1594846311222 .statediagram-cluster .inner {
  rx: 0;
  ry: 0; }

#mermaid-1594846311222 .statediagram-state rect.basic {
  rx: 5px;
  ry: 5px; }

#mermaid-1594846311222 .statediagram-state rect.divider {
  stroke-dasharray: 10,10;
  fill: #efefef; }

#mermaid-1594846311222 .note-edge {
  stroke-dasharray: 5; }

#mermaid-1594846311222 .statediagram-note rect {
  fill: #fff5ad;
  stroke: #aaaa33;
  stroke-width: 1px;
  rx: 0;
  ry: 0; }

:root {
  --mermaid-font-family: '"trebuchet ms", verdana, arial';
  --mermaid-font-family: "Comic Sans MS", "Comic Sans", cursive; }


#mermaid-1594846311222 .error-icon {
  fill: #552222; }

#mermaid-1594846311222 .error-text {
  fill: #552222;
  stroke: #552222; }

#mermaid-1594846311222 .edge-thickness-normal {
  stroke-width: 2px; }

#mermaid-1594846311222 .edge-thickness-thick {
  stroke-width: 3.5px; }

#mermaid-1594846311222 .edge-pattern-solid {
  stroke-dasharray: 0; }

#mermaid-1594846311222 .edge-pattern-dashed {
  stroke-dasharray: 3; }

#mermaid-1594846311222 .edge-pattern-dotted {
  stroke-dasharray: 2; }

#mermaid-1594846311222 .marker {
  fill: #333333; }

#mermaid-1594846311222 .marker.cross {
  stroke: #333333; }

:root { --mermaid-font-family: "trebuchet ms", verdana, arial;}</style><style>#mermaid-1594846311222 {
    color: rgb(0, 0, 0);
    font: 16px "trebuchet ms", verdana, arial;
  }</style><g></g><g class="grid" transform="translate(75, 266)" fill="none" font-size="10" font-family="sans-serif" text-anchor="middle"><path class="domain" stroke="currentColor" d="M0.5,-231V0.5H1418.5V-231"></path><g class="tick" opacity="1" transform="translate(12.5,0)"><line stroke="currentColor" y2="-231"></line><text fill="#000" y="3" dy="1em" stroke="none" font-size="10" style="text-anchor: middle;">2020-07-19</text></g><g class="tick" opacity="1" transform="translate(93.5,0)"><line stroke="currentColor" y2="-231"></line><text fill="#000" y="3" dy="1em" stroke="none" font-size="10" style="text-anchor: middle;">2020-07-26</text></g><g class="tick" opacity="1" transform="translate(174.5,0)"><line stroke="currentColor" y2="-231"></line><text fill="#000" y="3" dy="1em" stroke="none" font-size="10" style="text-anchor: middle;">2020-08-02</text></g><g class="tick" opacity="1" transform="translate(256.5,0)"><line stroke="currentColor" y2="-231"></line><text fill="#000" y="3" dy="1em" stroke="none" font-size="10" style="text-anchor: middle;">2020-08-09</text></g><g class="tick" opacity="1" transform="translate(337.5,0)"><line stroke="currentColor" y2="-231"></line><text fill="#000" y="3" dy="1em" stroke="none" font-size="10" style="text-anchor: middle;">2020-08-16</text></g><g class="tick" opacity="1" transform="translate(418.5,0)"><line stroke="currentColor" y2="-231"></line><text fill="#000" y="3" dy="1em" stroke="none" font-size="10" style="text-anchor: middle;">2020-08-23</text></g><g class="tick" opacity="1" transform="translate(500.5,0)"><line stroke="currentColor" y2="-231"></line><text fill="#000" y="3" dy="1em" stroke="none" font-size="10" style="text-anchor: middle;">2020-08-30</text></g><g class="tick" opacity="1" transform="translate(581.5,0)"><line stroke="currentColor" y2="-231"></line><text fill="#000" y="3" dy="1em" stroke="none" font-size="10" style="text-anchor: middle;">2020-09-06</text></g><g class="tick" opacity="1" transform="translate(662.5,0)"><line stroke="currentColor" y2="-231"></line><text fill="#000" y="3" dy="1em" stroke="none" font-size="10" style="text-anchor: middle;">2020-09-13</text></g><g class="tick" opacity="1" transform="translate(744.5,0)"><line stroke="currentColor" y2="-231"></line><text fill="#000" y="3" dy="1em" stroke="none" font-size="10" style="text-anchor: middle;">2020-09-20</text></g><g class="tick" opacity="1" transform="translate(825.5,0)"><line stroke="currentColor" y2="-231"></line><text fill="#000" y="3" dy="1em" stroke="none" font-size="10" style="text-anchor: middle;">2020-09-27</text></g><g class="tick" opacity="1" transform="translate(906.5,0)"><line stroke="currentColor" y2="-231"></line><text fill="#000" y="3" dy="1em" stroke="none" font-size="10" style="text-anchor: middle;">2020-10-04</text></g><g class="tick" opacity="1" transform="translate(988.5,0)"><line stroke="currentColor" y2="-231"></line><text fill="#000" y="3" dy="1em" stroke="none" font-size="10" style="text-anchor: middle;">2020-10-11</text></g><g class="tick" opacity="1" transform="translate(1069.5,0)"><line stroke="currentColor" y2="-231"></line><text fill="#000" y="3" dy="1em" stroke="none" font-size="10" style="text-anchor: middle;">2020-10-18</text></g><g class="tick" opacity="1" transform="translate(1150.5,0)"><line stroke="currentColor" y2="-231"></line><text fill="#000" y="3" dy="1em" stroke="none" font-size="10" style="text-anchor: middle;">2020-10-25</text></g><g class="tick" opacity="1" transform="translate(1232.5,0)"><line stroke="currentColor" y2="-231"></line><text fill="#000" y="3" dy="1em" stroke="none" font-size="10" style="text-anchor: middle;">2020-11-01</text></g><g class="tick" opacity="1" transform="translate(1313.5,0)"><line stroke="currentColor" y2="-231"></line><text fill="#000" y="3" dy="1em" stroke="none" font-size="10" style="text-anchor: middle;">2020-11-08</text></g><g class="tick" opacity="1" transform="translate(1395.5,0)"><line stroke="currentColor" y2="-231"></line><text fill="#000" y="3" dy="1em" stroke="none" font-size="10" style="text-anchor: middle;">2020-11-15</text></g></g><g><rect x="0" y="48" width="1530.5" height="24" class="section section0"></rect><rect x="0" y="144" width="1530.5" height="24" class="section section0"></rect><rect x="0" y="192" width="1530.5" height="24" class="section section0"></rect><rect x="0" y="168" width="1530.5" height="24" class="section section0"></rect><rect x="0" y="72" width="1530.5" height="24" class="section section0"></rect><rect x="0" y="240" width="1530.5" height="24" class="section section0"></rect><rect x="0" y="96" width="1530.5" height="24" class="section section0"></rect><rect x="0" y="216" width="1530.5" height="24" class="section section0"></rect><rect x="0" y="120" width="1530.5" height="24" class="section section0"></rect></g><g><rect id="des1" rx="3" ry="3" x="75" y="50" width="349" height="20" transform-origin="249.5px 60px" class="task active0 "></rect><rect id="des1" rx="3" ry="3" x="75" y="146" width="1220" height="20" transform-origin="685px 84px" class="task active0 "></rect><rect id="des3" rx="3" ry="3" x="75" y="194" width="697" height="20" transform-origin="423.5px 108px" class="task task0 "></rect><rect id="des2" rx="3" ry="3" x="156" y="170" width="175" height="20" transform-origin="243.5px 132px" class="task active0 "></rect><rect id="des2" rx="3" ry="3" x="435" y="74" width="349" height="20" transform-origin="609.5px 156px" class="task task0 "></rect><rect id="des6" rx="3" ry="3" x="598" y="242" width="523" height="20" transform-origin="859.5px 180px" class="task task0 "></rect><rect id="des3" rx="3" ry="3" x="795" y="98" width="349" height="20" transform-origin="969.5px 204px" class="task task0 "></rect><rect id="des4" rx="3" ry="3" x="795" y="218" width="698" height="20" transform-origin="1144px 228px" class="task task0 "></rect><rect id="des4" rx="3" ry="3" x="1144" y="122" width="349" height="20" transform-origin="1318.5px 252px" class="task task0 "></rect><text id="des1-text" font-size="11" x="249.5" y="63.5" text-height="20" class=" taskText taskText0 activeText0 width-21.34375">13.3                      					</text><text id="des1-text" font-size="11" x="685" y="159.5" text-height="20" class=" taskText taskText0 activeText0 width-191.4375">Gitlab.com downgrades &amp; resubscribes 		</text><text id="des3-text" font-size="11" x="423.5" y="207.5" text-height="20" class=" taskText taskText0  width-56.25">What's New		                        	</text><text id="des2-text" font-size="11" x="243.5" y="183.5" text-height="20" class=" taskText taskText0 activeText0 width-99.234375">Auto-renew banners 		                    </text><text id="des2-text" font-size="11" x="609.5" y="87.5" text-height="20" class=" taskText taskText0  width-21.34375">13.4                      					</text><text id="des6-text" font-size="11" x="859.5" y="255.5" text-height="20" class=" taskText taskText0  width-70.78125">Zuora Dunning                               </text><text id="des3-text" font-size="11" x="969.5" y="111.5" text-height="20" class=" taskText taskText0  width-21.34375">13.5                      					</text><text id="des4-text" font-size="11" x="1144" y="231.5" text-height="20" class=" taskText taskText0  width-209.375">Allow cancel and renew within Gitlab.com    </text><text id="des4-text" font-size="11" x="1318.5" y="135.5" text-height="20" class=" taskText taskText0  width-21.34375">13.6                      					</text></g><g><text dy="0em" x="10" y="158" class="sectionTitle sectionTitle0"><tspan alignment-baseline="central" x="10">Milestone</tspan></text></g><g class="today"><line x1="48" x2="48" y1="25" y2="291" class="today"></line></g><text x="784" y="25" class="titleText">Retention Roadmap</text></svg>